// Jest Snapshot v1, https://goo.gl/fbAQLP

exports[`Main component should render without throwing an error 1`] = `
<HashRouter>
  <MuiThemeProvider>
    <Switch>
      <Route
        component={[Function]}
        exact={true}
        path="/"
      />
      <Route
        component={[Function]}
        exact={true}
        path="/home"
      />
      <Route
        component={[Function]}
        exact={true}
        path="/:componentName"
      />
    </Switch>
  </MuiThemeProvider>
</HashRouter>
`;
